[
    {
        "number": 0, 
        "id": "abc@gmail.com", 
        "text": "The Next, Next Generation\r\n\r\nExperience the future with Motorola XOOM with Wi-Fi, the world's first tablet powered by Android 3.0 (Honeycomb)."
    }, 
    {
        "number": 1, 
        "id": "def@gmail.com", 
        "text": "The Next, Next Generation\n\nExperience the future with MOTOROLA XOOM, the world's first tablet powered by Android 3.0 (Honeycomb)."
    }, 
    {
        "number": 2, 
        "id": "abc@gmail.com", 
        "text": "MOTOROLA ATRIX 4G the world's most powerful smartphone."
    }, 
    {
        "number": 3, 
        "id": "def@gmail.com", 
        "text": "Introducing Dell\u2122 Streak 7. Share photos, videos and movies together. It\u2019s small enough to carry around, big enough to gather around."
    }, 
    {
        "number": 4, 
        "id": "xyz@gmail.com", 
        "text": "The Samsung Gem\u2122 brings you everything that you would expect and more from a touch display smart phone \u2013 more apps, more features and a more affordable price."
    }, 
    {
        "number": 5, 
        "id": "abc@gmail.com", 
        "text": "The Dell Venue; Your Personal Express Lane to Everything"
    }, 
    {
        "number": 6, 
        "id": "xyz@gmail.com", 
        "text": "Fast just got faster with Nexus S. A pure Google experience, Nexus S is the first phone to run Gingerbread (Android 2.3), the fastest version of Android yet."
    }, 
    {
        "number": 7, 
        "id": "abc@gmail.com", 
        "text": "Android Powered, Google Maps Navigation, 5 Customizable Home Screens"
    }, 
    {
        "number": 8, 
        "id": "def@gmail.com", 
        "text": "Feel Free to Tab\u2122. The Samsung Galaxy Tab\u2122 brings you an ultra-mobile entertainment experience through its 7\u201d display, high-power processor and Adobe\u00ae Flash\u00ae Player compatibility."
    }, 
    {
        "number": 9, 
        "id": "xyz@gmail.com", 
        "text": "The Samsung Showcase\u2122 delivers a cinema quality experience like you\u2019ve never seen before. Its innovative 4\u201d touch display technology provides rich picture brilliance, even outdoors"
    }, 
    {
        "number": 10, 
        "id": "abc@gmail.com", 
        "text": "The first smartphone with a 1.2 GHz processor and global capabilities."
    } 

]
